…
# Retrieve NHANES dietary data converted to Food Patterns components and 
# demographic data for 2017 and 2018 
selectDataset(year = '1718')
#> # A tibble: 8,704 × 51
#>     SEQN WTDRD1 WTDR2D SEX    RACE_ETH           AGE FAMINC    DR1TKCAL DR2TKCAL
#>    <dbl>  <dbl>  <dbl> <chr>  <chr>            <dbl> <chr>        <dbl>    <dbl>
#>  1 93703     0     NA  Female Asian                2 ">100000"       NA       NA
#>  2 93704 81714. 82443. Male   White                2 ">100000"     1230     1356
#>  3 93705  7186.  5640. Female Black               66 "[10000,…     1202     1235
#>  4 93706  6464.     0  Male   Asian               18 ""            1987       NA
#>  5 93707 15334. 22707. Male   Other               13 "[65000,…     1775     1794
#>  6 93708 10826. 22482. Female Asian               66 "[25000,…     1251      842
#>  7 93709     0     NA  Female Black               75 "[5000, …       NA       NA
#>  8 93710  8616.  7185. Female White                0 ">100000"      900     1195
#>  9 93711  9098.  8230. Male   Asian               56 ">100000"     2840     2819
#> 10 93712 60947. 89066. Male   Mexican American    18 "[15000,…     2045     3348
#> # ℹ 8,694 more rows
#> # ℹ 42 more variables: DR1T_F_TOTAL <dbl>, DR2T_F_TOTAL <dbl>,
#> #   DR1_FWHOLEFRT <dbl>, DR2_FWHOLEFRT <dbl>, DR1T_F_JUICE <dbl>,
#> #   DR2T_F_JUICE <dbl>, DR1_VTOTALLEG <dbl>, DR2_VTOTALLEG <dbl>,
#> #   DR1_VDRKGRLEG <dbl>, DR2_VDRKGRLEG <dbl>, DR1_VNONDRKGR <dbl>,
#> #   DR2_VNONDRKGR <dbl>, DR1T_V_DRKGR <dbl>, DR2T_V_DRKGR <dbl>,
#> #   DR1T_V_LEGUMES <dbl>, DR2T_V_LEGUMES <dbl>, DR1T_G_WHOLE <dbl>, …
…
